<svg width="14" height="14" viewBox="0 0 14 14" fill="none" xmlns="http://www.w3.org/2000/svg">
<path d="M13.3156 2.88556L11.1144 0.684445C10.6773 0.246735 10.0842 0.000544606 9.46556 0H4.53444C3.91581 0.000544606 3.32272 0.246735 2.88556 0.684445L0.684445 2.88556C0.246735 3.32272 0.000544606 3.91581 0 4.53444V11.6667C0 12.2855 0.245833 12.879 0.683418 13.3166C1.121 13.7542 1.71449 14 2.33333 14H11.6667C12.2855 14 12.879 13.7542 13.3166 13.3166C13.7542 12.879 14 12.2855 14 11.6667V4.53444C13.9995 3.91581 13.7533 3.32272 13.3156 2.88556ZM7 10.1111C6.17488 10.1111 5.38356 9.78333 4.80011 9.19989C4.21667 8.61644 3.88889 7.82512 3.88889 7C3.88889 6.79372 3.97083 6.59589 4.11669 6.45003C4.26256 6.30417 4.46039 6.22222 4.66667 6.22222C4.87295 6.22222 5.07078 6.30417 5.21664 6.45003C5.3625 6.59589 5.44444 6.79372 5.44444 7C5.44444 7.41256 5.60833 7.80822 5.90006 8.09994C6.19178 8.39167 6.58744 8.55556 7 8.55556C7.41256 8.55556 7.80822 8.39167 8.09994 8.09994C8.39167 7.80822 8.55556 7.41256 8.55556 7C8.55556 6.79372 8.6375 6.59589 8.78336 6.45003C8.92922 6.30417 9.12705 6.22222 9.33333 6.22222C9.53961 6.22222 9.73744 6.30417 9.88331 6.45003C10.0292 6.59589 10.1111 6.79372 10.1111 7C10.1111 7.82512 9.78333 8.61644 9.19989 9.19989C8.61644 9.78333 7.82512 10.1111 7 10.1111ZM2.65222 3.11111L3.98222 1.78111C4.13127 1.63898 4.32851 1.55842 4.53444 1.55556H9.46556C9.67149 1.55842 9.86873 1.63898 10.0178 1.78111L11.3478 3.11111H2.65222Z" fill="#424242"/>
</svg>
